[
    {
        "youtube_id": "XADw0qPVSP4",
        "classname": "YouTube",
        "title": "SPINNING\u00ae AND EXTREME GYM",
        "description": "",
        "image_link": "https://i.ytimg.com/vi/XADw0qPVSP4/default.jpg",
        "pub_date": "2009-10-02T20:07:28Z"
    },
    {
        "youtube_id": "mC7BRhUjIvc",
        "classname": "Stage",
        "title": "STage 1",
        "description": "Video for spinning",
        "image_link": "http://img.youtube.com/vi/mC7BRhUjIvc/2.jpg",
        "pub_date": "2006-10-04T20:07:28Z"
    },
    {
        "youtube_id": "dkr7uK12UoA",
        "classname": "YouTube",
        "title": "Stayin' Fit: Spin Class (with Briant Mitchell)",
        "description": "Sorry for the long pre-roll, to view a trimmed version of this video see http://youtu.be/KLlWYscNJi0 Otherwise, you can skip forward to 0:20.",
        "image_link": "https://i.ytimg.com/vi/dkr7uK12UoA/default.jpg",
        "pub_date": "2012-03-26T20:55:18Z"
    },
    {
        "youtube_id": "FQywN1x0VXs",
        "classname": "YouTube",
        "title": "SPINNING CLASES ESPA\u00d1OL - CLASE COMPLETA Telf: 96 147 26 57",
        "description": "SPINNING CLASES ESPA\u00d1OL - CLASE COMPLETA DE SPINNING EN ESPA\u00d1OL CORTES\u00cdA DE GRUPOCONTACT. http://www.grupocontact.es Telf: 96 147 ...",
        "image_link": "https://i.ytimg.com/vi/FQywN1x0VXs/default.jpg",
        "pub_date": "2013-01-16T07:41:57Z"
    },
    {
        "youtube_id": "Mp9duNLcN1I",
        "classname": "YouTube",
        "title": "indoor cycling music & training - athletic MUSIC - Scarlet ibis",
        "description": "http://www.athleticmusic.com It is an ideal system for fitness instructors and fitness clubs as well as individual practitioners of indoor cycling.The music ...",
        "image_link": "https://i.ytimg.com/vi/Mp9duNLcN1I/default.jpg",
        "pub_date": "2012-03-01T16:43:23Z"
    },
    {
        "youtube_id": "9w_t2Z0CRag",
        "classname": "YouTube",
        "title": "Ann's Total Fitness Spinning",
        "description": "Spinning Class.",
        "image_link": "https://i.ytimg.com/vi/9w_t2Z0CRag/default.jpg",
        "pub_date": "2010-05-03T19:24:14Z"
    },
    {
        "youtube_id": "P5OZ4XlSWoA",
        "classname": "YouTube",
        "title": "Fitness master class: Spinning",
        "description": "The best indoor workout you're not doing? Spinning. But what if we told you it can sizzle 400 calories a session? We got answers to your burning questions fr...",
        "image_link": "https://i.ytimg.com/vi/P5OZ4XlSWoA/default.jpg",
        "pub_date": "2009-12-10T19:32:05Z"
    },
    {
        "youtube_id": "WI4tarGJR24",
        "classname": "YouTube",
        "title": "Bye & R\u00f8nning - Spinning (musikkvideo) - Admiral P parodi",
        "description": "Anders Bye og Jon Niklas R\u00f8nning gir oss en parodi p\u00e5 Spinnvill - Admiral P sin store hit. Bye & R\u00f8nning forteller historien om den overvektige mannen som m\u00e5.",
        "image_link": "https://i.ytimg.com/vi/WI4tarGJR24/default.jpg",
        "pub_date": "2012-12-14T08:08:34Z"
    },
    {
        "youtube_id": "rNaLBfKbOVI",
        "classname": "YouTube",
        "title": "Johnny G Live in Miami  Pt 1",
        "description": "The creator of the Spinning indoor cycling program, the one & only Johnny G, doing what he does best on & off the bike in Miami Beach, FL in April 2003.",
        "image_link": "https://i.ytimg.com/vi/rNaLBfKbOVI/default.jpg",
        "pub_date": "2007-04-22T00:56:02Z"
    },
    {
        "youtube_id": "F40VJEqOn5o",
        "classname": "YouTube",
        "title": "How to Spin Roving into Yarn",
        "description": "A simple tutorial showing how you can spin wool roving or wool top into a single ply yarn. Check out the other yarn spinning and fiber arts tutorials on my c...",
        "image_link": "https://i.ytimg.com/vi/F40VJEqOn5o/default.jpg",
        "pub_date": "2010-12-09T09:16:57Z"
    },
    {
        "youtube_id": "NJQkdHYkLIQ",
        "classname": "YouTube",
        "title": "Spinning Class @ Versus",
        "description": "Judy's Spin class. About 20 people spinning hard.",
        "image_link": "https://i.ytimg.com/vi/NJQkdHYkLIQ/default.jpg",
        "pub_date": "2008-05-27T17:40:23Z"
    },
    {
        "youtube_id": "MvYDbrsrkfk",
        "classname": "YouTube",
        "title": "C\u00f3mo se practica spinning y qu\u00e9 se logra?",
        "description": "Aprende los conocimientos b\u00e1sicos para realizar spinning con Energy y DR TV. Adem\u00e1s, ent\u00e9rate de los beneficios de esta clase, muy completa y con ...",
        "image_link": "https://i.ytimg.com/vi/MvYDbrsrkfk/default.jpg",
        "pub_date": "2011-09-28T21:18:09Z"
    },
    {
        "youtube_id": "7gXTWgMeMgI",
        "classname": "YouTube",
        "title": "Spinning Yarn on a Drop Spindle - Tutorial",
        "description": "http://www.theartofmegan.com Here you'll see how to make yarn on a top whorl drop spindle. Megan shows starting a leader yarn, the park method, the drop ...",
        "image_link": "https://i.ytimg.com/vi/7gXTWgMeMgI/default.jpg",
        "pub_date": "2008-05-13T23:30:13Z"
    },
    {
        "youtube_id": "gFK6NGwHGgw",
        "classname": "YouTube",
        "title": "Spindlicity Spinning From the Fold",
        "description": "A Spindlicity technique video. How to spin from the fold demonstrated by Beth Smith of the Spinning Loft.",
        "image_link": "https://i.ytimg.com/vi/gFK6NGwHGgw/default.jpg",
        "pub_date": "2008-09-27T06:44:28Z"
    },
    {
        "youtube_id": "0H3C5dXsXvQ",
        "classname": "YouTube",
        "title": "spinning mixto enero 2012 varios formatos.wmv",
        "description": "este es un ejemplo de una de mis tantas clases de spinning. En este caso habia decyoutube_idyoutubeo armar una q estoy aun dando, en donde no sea tan estructurada ...",
        "image_link": "https://i.ytimg.com/vi/0H3C5dXsXvQ/default.jpg",
        "pub_date": "2012-02-17T15:24:46Z"
    },
    {
        "youtube_id": "um-biLfru-c",
        "classname": "YouTube",
        "title": "Metal Spinning,",
        "description": "Metal Spinning of a nose cone for a wind vane. For more information see www.douglas-metals.com Douglas Metals inc MN.",
        "image_link": "https://i.ytimg.com/vi/um-biLfru-c/default.jpg",
        "pub_date": "2009-02-07T22:23:51Z"
    },
    {
        "youtube_id": "p3RBTT42tSw",
        "classname": "YouTube",
        "title": ":Fishing *Mommotti 190* Extreme Spinning - Dentice",
        "description": "Spinning no limits alle Canarie!! Stefano e Alessandro, Mommotti 190, un mare incredibile e un pesce da ricordare!! PLEASE, DON'T TRY THIS AT HOME!!!",
        "image_link": "https://i.ytimg.com/vi/p3RBTT42tSw/default.jpg",
        "pub_date": "2011-07-12T16:21:53Z"
    },
    {
        "youtube": "4vslyntqZGk",
        "classname": "YouTube",
        "title": "W\u0119dkarstwo Spinning Metody i techniki prowadzenia przyn\u0119t na szczupaka sandacza okonia HD",
        "description": "Testy w\u0119dkarskie oraz techniki po\u0142owu.",
        "image_link": "https://i.ytimg.com/vi/4vslyntqZGk/default.jpg",
        "pub_date": "2011-11-15T03:49:00Z"
    },
    {
        "youtube_id": "2NXvbIwyWvU",
        "classname": "YouTube",
        "title": "metrowy szczupak na spinning",
        "description": "Du\u017co emocji, dobra zabawa, walka z metr\u00f3w\u0105. Kolega zawsze co\u015b ubije gdy ja bior\u0119 kamer\u0119. Nie lubi\u0119 go za to ale zemsta nadejdzie...A wam jak si\u0119 podoba\u0142o.",
        "image_link": "https://i.ytimg.com/vi/2NXvbIwyWvU/default.jpg",
        "pub_date": "2011-01-27T11:33:29Z"
    },
    {
        "youtube_id": "foZlciP6gUQ",
        "classname": "YouTube",
        "title": "Spinning .40 cal bullet on ice",
        "description": "DANGER: DO NOT ATTEMPT** Many think my first bullet video was fake, so I wanted to prove it was real. Here it is...",
        "image_link": "https://i.ytimg.com/vi/foZlciP6gUQ/default.jpg",
        "pub_date": "2010-01-10T03:21:44Z"
    },
    {
        "youtube_id": "rPUORvO-GZE",
        "classname": "YouTube",
        "title": "Introduction to Spinning, Part 1",
        "description": "If you're interested in spinning your own yarn, this vyoutubeeo provides you with all the information you need to get started. Park and draft with a drop spindle ...",
        "image_link": "https://i.ytimg.com/vi/rPUORvO-GZE/default.jpg",
        "pub_date": "2009-03-09T17:03:48Z"
    },
    {
        "youtube_id": "GapR198Ut_k",
        "classname": "YouTube",
        "title": "Dirdy Birdy spinning pole",
        "description": "www.facebook.com/DirdyBirdyPage.",
        "image_link": "https://i.ytimg.com/vi/GapR198Ut_k/default.jpg",
        "pub_date": "2012-04-14T16:07:20Z"
    },
    {
        "youtube_id": "PSPZM-chauc",
        "classname": "YouTube",
        "title": "TUTORIAL: LA PESCA A SPINNING AL SILURO by YURI GRISENDI",
        "description": "http://www.catfishing-around-the-world.eu ROD AND REEL FOR FISH CATFISH IN SPINNING. MONTATURE, ARTIFICIALI, ATTREZZATURE E TRUCCHI PER ...",
        "image_link": "https://i.ytimg.com/vi/PSPZM-chauc/default.jpg",
        "pub_date": "2012-04-18T19:21:28Z"
    },
    {
        "youtube_id": "hUurIgE2H8U",
        "classname": "YouTube",
        "title": "How to Cast a Spinning Reel and catch more fish",
        "description": "Learning to operate a spinning reel quickly and efficiently while fishing will help you catch more fish. When sight fishing the saltwater flats, proper opera...",
        "image_link": "https://i.ytimg.com/vi/hUurIgE2H8U/default.jpg",
        "pub_date": "2012-03-16T18:37:00Z"
    },
    {
        "youtube_id": "qaGS3Uts704",
        "classname": "YouTube",
        "title": "Kylie Minogue \"Spinning Around\" music video",
        "description": "Clubby video featuring one of the loveliest ladies on planet earth. When I was a kid I was staying at the same hotel as her in London. She walked by and gave...",
        "image_link": "https://i.ytimg.com/vi/qaGS3Uts704/default.jpg",
        "pub_date": "2006-03-21T03:51:16Z"
    },
    {
        "youtube_id": "8E4-5aWhzzY",
        "classname": "YouTube",
        "title": "Leccia a Spinning con G.Loomis GL2 803S",
        "description": "G.Loomis Pro Staff Maurizio Mancuso cattura una bellissima Leccia con una GL2 803S.",
        "image_link": "https://i.ytimg.com/vi/8E4-5aWhzzY/default.jpg",
        "pub_date": "2012-02-05T21:04:13Z"
    }
]


