<?xml version="1.0" encoding="UTF-8" standalone="no"?>
<!-- Generator: Adobe Illustrator 14.0.0, SVG Export Plug-In . SVG Version: 6.00 Build 43363)  -->
<svg
   xmlns:dc="http://purl.org/dc/elements/1.1/"
   xmlns:cc="http://creativecommons.org/ns#"
   xmlns:rdf="http://www.w3.org/1999/02/22-rdf-syntax-ns#"
   xmlns:svg="http://www.w3.org/2000/svg"
   xmlns="http://www.w3.org/2000/svg"
   xmlns:sodipodi="http://sodipodi.sourceforge.net/DTD/sodipodi-0.dtd"
   xmlns:inkscape="http://www.inkscape.org/namespaces/inkscape"
   version="1.0"
   id="Layer_1"
   x="0px"
   y="0px"
   width="20"
   height="16"
   viewBox="0 0 16 16"
   enable-background="new 0 0 16 16"
   xml:space="preserve"
   sodipodi:version="0.32"
   inkscape:version="0.46"
   sodipodi:docname="volume-medium.svg"
   inkscape:output_extension="org.inkscape.output.svg.inkscape"><metadata
   id="metadata12"><rdf:RDF><cc:Work
       rdf:about=""><dc:format>image/svg+xml</dc:format><dc:type
         rdf:resource="http://purl.org/dc/dcmitype/StillImage" /></cc:Work></rdf:RDF></metadata><defs
   id="defs10"><inkscape:perspective
     sodipodi:type="inkscape:persp3d"
     inkscape:vp_x="0 : 8 : 1"
     inkscape:vp_y="0 : 1000 : 0"
     inkscape:vp_z="16 : 8 : 1"
     inkscape:persp3d-origin="8 : 5.3333333 : 1"
     id="perspective14" /></defs><sodipodi:namedview
   inkscape:window-height="480"
   inkscape:window-width="640"
   inkscape:pageshadow="2"
   inkscape:pageopacity="0.0"
   guidetolerance="10.0"
   gridtolerance="10.0"
   objecttolerance="10.0"
   borderopacity="1.0"
   bordercolor="#666666"
   pagecolor="#ffffff"
   id="base"
   showgrid="false" />


<g
   id="g2381"><polygon
     style="fill:#ff0000"
     transform="translate(2,0)"
     id="polygon3"
     points="0,5.748 0,10.26 3.027,10.26 6.559,13.623 6.559,2.385 3.027,5.748 0,5.748 " /><path
     style="fill:#ff0000"
     id="path5"
     d="M 11.798,4.919 C 11.6,4.72 11.277,4.72 11.078,4.919 C 10.88,5.118 10.88,5.44 11.078,5.638 L 11.078,5.638 C 11.732,6.292 12.058,7.144 12.058,8 C 12.058,8.859 11.732,9.713 11.079,10.369 C 10.881,10.568 10.881,10.89 11.079,11.088 C 11.18,11.188 11.308,11.236 11.439,11.236 C 11.568,11.236 11.701,11.187 11.797,11.088 C 12.65,10.236 13.076,9.116 13.076,8 C 13.076,6.887 12.648,5.769 11.798,4.919 z" /><path
     style="fill:#ff0000"
     id="path7"
     d="M 13.406,3.308 C 13.206,3.109 12.884,3.109 12.683,3.308 C 12.486,3.507 12.486,3.829 12.683,4.028 L 12.683,4.028 C 13.783,5.126 14.329,6.559 14.331,7.996 C 14.329,9.439 13.784,10.879 12.683,11.98 C 12.486,12.179 12.486,12.501 12.683,12.7 C 12.784,12.8 12.913,12.847 13.043,12.847 C 13.174,12.847 13.306,12.798 13.403,12.7 C 14.702,11.402 15.348,9.695 15.346,7.996 C 15.352,6.299 14.697,4.601 13.406,3.308 z" /></g>
</svg>